<svg xmlns="http://www.w3.org/2000/svg" width="27" height="35" viewBox="0 0 27 35">
  <g id="Rectangle_5539" data-name="Rectangle 5539" fill="none" stroke="#203c6e" stroke-width="4" opacity="0.614">
    <rect width="27" height="35" rx="8" stroke="none"/>
    <rect x="2" y="2" width="23" height="31" rx="6" fill="none"/>
  </g>
  <rect id="Rectangle_5540" data-name="Rectangle 5540" width="13" height="21" rx="1" transform="translate(7 7)" fill="#203c6e" opacity="0.614"/>
</svg>