<svg xmlns="http://www.w3.org/2000/svg" width="22.397" height="22.397" viewBox="0 0 22.397 22.397">
  <g id="Group_15844" data-name="Group 15844" transform="translate(-448.333 -627.346)">
    <g id="Group_15836" data-name="Group 15836" transform="translate(448.333 627.346)">
      <path id="Path_10784" data-name="Path 10784" d="M11.2,0A11.2,11.2,0,1,0,22.4,11.2,11.2,11.2,0,0,0,11.2,0Z" transform="translate(0 0)" fill="#ecf1f4"/>
      <g id="Group_14035" data-name="Group 14035" transform="translate(3.791 5.443)" style="isolation: isolate">
        <g id="Group_12850" data-name="Group 12850" transform="translate(0 0)">
          <path id="Path_10691" data-name="Path 10691" d="M77.156,46.679a1.762,1.762,0,0,0-2.489,0l-6.5,6.5-2.3-2.3a1.76,1.76,0,0,0-2.489,2.489l3.969,3.969a1.168,1.168,0,0,0,1.65,0l8.165-8.165A1.762,1.762,0,0,0,77.156,46.679Z" transform="translate(-62.857 -46.165)" fill="#4b4b4b"/>
        </g>
      </g>
    </g>
  </g>
</svg>
