<svg xmlns="http://www.w3.org/2000/svg" width="13.998" height="18.463" viewBox="0 0 13.998 18.463">
  <path id="Polygon_146" data-name="Polygon 146" d="M8.4,1.266a1,1,0,0,1,1.67,0l7.374,11.181A1,1,0,0,1,16.606,14H1.857a1,1,0,0,1-.835-1.551Z" transform="translate(13.998) rotate(90)" fill="#172746"/>
</svg>
