<svg xmlns="http://www.w3.org/2000/svg" xmlns:xlink="http://www.w3.org/1999/xlink" width="75.109" height="75.198" viewBox="0 0 75.109 75.198">
  <defs>
    <filter id="Path_10731" x="0" y="17.757" width="75.109" height="57.44" filterUnits="userSpaceOnUse">
      <feOffset dy="3" input="SourceAlpha"/>
      <feGaussianBlur stdDeviation="3" result="blur"/>
      <feFlood flood-opacity="0.161"/>
      <feComposite operator="in" in2="blur"/>
      <feComposite in="SourceGraphic"/>
    </filter>
    <filter id="Path_10739" x="21.684" y="0" width="31.742" height="39.684" filterUnits="userSpaceOnUse">
      <feOffset dy="3" input="SourceAlpha"/>
      <feGaussianBlur stdDeviation="3" result="blur-2"/>
      <feFlood flood-opacity="0.161"/>
      <feComposite operator="in" in2="blur-2"/>
      <feComposite in="SourceGraphic"/>
    </filter>
  </defs>
  <g id="_6_icons-08" data-name="6 icons-08" transform="translate(9 6)">
    <g transform="matrix(1, 0, 0, 1, -9, -6)" filter="url(#Path_10731)">
      <path id="Path_10731-2" data-name="Path 10731" d="M287.609,426.595v31.231a4.1,4.1,0,0,1-4.1,4.1H234.6a4.1,4.1,0,0,1-4.1-4.1V426.595a4.1,4.1,0,0,1,4.1-4.1h48.9A4.1,4.1,0,0,1,287.609,426.595Z" transform="translate(-221.5 -398.73)" fill="#f3f6f8"/>
    </g>
    <g id="Group_12892" data-name="Group 12892" transform="translate(17.668 17.757)">
      <path id="Path_10732" data-name="Path 10732" d="M443.773,422.49v6.024a1.829,1.829,0,0,1-1.83,1.829H423.83a1.829,1.829,0,0,1-1.83-1.829V422.49Z" transform="translate(-422 -422.49)" fill="#cfd2ea"/>
    </g>
    <path id="Path_10733" data-name="Path 10733" d="M307.346,551.275V571.71a1.116,1.116,0,0,1-1.115,1.115H284.815a1.116,1.116,0,0,1-1.115-1.115V551.275a1.116,1.116,0,0,1,1.115-1.115h21.415A1.116,1.116,0,0,1,307.346,551.275Z" transform="translate(-278.792 -520.624)" fill="#1a2b51"/>
    <g id="Group_12894" data-name="Group 12894" transform="translate(32.507 30.751)">
      <g id="Group_12893" data-name="Group 12893" transform="translate(0 0)">
        <path id="Path_10734" data-name="Path 10734" d="M602.475,565h-18.8a.837.837,0,0,1,0-1.674h18.8a.837.837,0,1,1,0,1.674Z" transform="translate(-582.84 -563.33)" fill="#263c6a"/>
      </g>
    </g>
    <g id="Group_12895" data-name="Group 12895" transform="translate(32.313 37.518)">
      <path id="Path_10735" data-name="Path 10735" d="M587.3,638.731h-5.532a1.031,1.031,0,0,1,0-2.061H587.3a1.031,1.031,0,1,1,0,2.061Z" transform="translate(-580.74 -636.67)" fill="#263c6a"/>
    </g>
    <g id="Group_12896" data-name="Group 12896" transform="translate(32.312 45.37)">
      <path id="Path_10736" data-name="Path 10736" d="M584.973,723.841H581.76a1.031,1.031,0,0,1,0-2.061h3.213a1.031,1.031,0,0,1,0,2.061Z" transform="translate(-580.73 -721.78)" fill="#263c6a"/>
    </g>
    <g id="Group_12898" data-name="Group 12898" transform="translate(32.507 41.459)">
      <g id="Group_12897" data-name="Group 12897" transform="translate(0 0)">
        <path id="Path_10737" data-name="Path 10737" d="M593.67,681.064h-9.994a.837.837,0,0,1,0-1.674h9.994a.837.837,0,0,1,0,1.674Z" transform="translate(-582.84 -679.39)" fill="#263c6a"/>
      </g>
    </g>
    <g id="Group_12900" data-name="Group 12900" transform="translate(32.507 49.43)">
      <g id="Group_12899" data-name="Group 12899" transform="translate(0 0)">
        <path id="Path_10738" data-name="Path 10738" d="M596.942,767.464H583.677a.837.837,0,0,1,0-1.674h13.266a.837.837,0,1,1,0,1.674Z" transform="translate(-582.84 -765.79)" fill="#263c6a"/>
      </g>
    </g>
    <g transform="matrix(1, 0, 0, 1, -9, -6)" filter="url(#Path_10739)">
      <path id="Path_10739-2" data-name="Path 10739" d="M465.53,230.02v19.988a1.7,1.7,0,0,0,1.7,1.7h10.351a1.7,1.7,0,0,0,1.7-1.7V230.02Z" transform="translate(-434.85 -224.02)" fill="#1a2b51"/>
    </g>
    <g id="Group_12901" data-name="Group 12901" transform="translate(9.061 34.121)">
      <path id="Path_10740" data-name="Path 10740" d="M336.386,710.92a7.74,7.74,0,0,0-7.662,6.736.961.961,0,0,0,.234.756,1.006,1.006,0,0,0,.756.342h.444a1,1,0,0,0,.983-.872,5.3,5.3,0,0,1,10.492,0,1,1,0,0,0,.983.872h.444a1.006,1.006,0,0,0,.756-.342.96.96,0,0,0,.234-.756A7.743,7.743,0,0,0,336.386,710.92Z" transform="translate(-328.717 -700.673)" fill="#f3f6f8"/>
      <path id="Path_10741" data-name="Path 10741" d="M369.462,746.73a4.421,4.421,0,0,0-4.279,3.308.955.955,0,0,0,.173.827,1,1,0,0,0,.8.392h6.616a1,1,0,0,0,.8-.392.951.951,0,0,0,.172-.827A4.418,4.418,0,0,0,369.462,746.73Z" transform="translate(-361.791 -733.179)" fill="#f3f6f8"/>
      <path id="Path_10742" data-name="Path 10742" d="M364.339,609.509a4.829,4.829,0,1,0-4.829-4.829A4.834,4.834,0,0,0,364.339,609.509Z" transform="translate(-356.669 -599.85)" fill="#f3f6f8"/>
    </g>
  </g>
</svg>
