<svg xmlns="http://www.w3.org/2000/svg" xmlns:xlink="http://www.w3.org/1999/xlink" width="78" height="77.515" viewBox="0 0 78 77.515">
  <defs>
    <filter id="Ellipse_1009" x="25.555" y="0" width="40.492" height="41.117" filterUnits="userSpaceOnUse">
      <feOffset dx="3" dy="3" input="SourceAlpha"/>
      <feGaussianBlur stdDeviation="3" result="blur"/>
      <feFlood flood-opacity="0.361"/>
      <feComposite operator="in" in2="blur"/>
      <feComposite in="SourceGraphic"/>
    </filter>
    <filter id="Path_11296" x="20.156" y="25.734" width="51.382" height="29.335" filterUnits="userSpaceOnUse">
      <feOffset dx="3" dy="3" input="SourceAlpha"/>
      <feGaussianBlur stdDeviation="3" result="blur-2"/>
      <feFlood flood-opacity="0.361"/>
      <feComposite operator="in" in2="blur-2"/>
      <feComposite in="SourceGraphic"/>
    </filter>
    <filter id="Path_11297" x="29.394" y="33.811" width="32.816" height="21.258" filterUnits="userSpaceOnUse">
      <feOffset dx="3" dy="3" input="SourceAlpha"/>
      <feGaussianBlur stdDeviation="3" result="blur-3"/>
      <feFlood flood-opacity="0.361"/>
      <feComposite operator="in" in2="blur-3"/>
      <feComposite in="SourceGraphic"/>
    </filter>
    <filter id="Rectangle_5811" x="0" y="38.75" width="78" height="38.766" filterUnits="userSpaceOnUse">
      <feOffset dx="3" dy="3" input="SourceAlpha"/>
      <feGaussianBlur stdDeviation="3" result="blur-4"/>
      <feFlood flood-opacity="0.161"/>
      <feComposite operator="in" in2="blur-4"/>
      <feComposite in="SourceGraphic"/>
    </filter>
  </defs>
  <g id="Group_15468" data-name="Group 15468" transform="translate(-725.414 -820)">
    <g transform="matrix(1, 0, 0, 1, 725.41, 820)" filter="url(#Ellipse_1009)">
      <ellipse id="Ellipse_1009-2" data-name="Ellipse 1009" cx="11.246" cy="11.559" rx="11.246" ry="11.559" transform="translate(31.56 6)" fill="#edf2f5"/>
    </g>
    <g transform="matrix(1, 0, 0, 1, 725.41, 820)" filter="url(#Path_11296)">
      <path id="Path_11296-2" data-name="Path 11296" d="M139.135,186.735a12.712,12.712,0,0,1,21.511,0h5.935a17.956,17.956,0,0,0-33.382,0Z" transform="translate(-107.04 -143.67)" fill="#edf2f5"/>
    </g>
    <g transform="matrix(1, 0, 0, 1, 725.41, 820)" filter="url(#Path_11297)">
      <path id="Path_11297-2" data-name="Path 11297" d="M168.716,196.758a10.052,10.052,0,0,0-14.816,0Z" transform="translate(-118.51 -153.69)" fill="#edf2f5"/>
    </g>
    <g transform="matrix(1, 0, 0, 1, 725.41, 820)" filter="url(#Rectangle_5811)">
      <path id="Rectangle_5811-2" data-name="Rectangle 5811" d="M11.068,6H60.915a5.533,5.533,0,0,1,1.974.36,5.15,5.15,0,0,1,1.612.98A4.587,4.587,0,0,1,65.588,8.79a4.159,4.159,0,0,1,.4,1.773L66,22.3a4.055,4.055,0,0,1-.392,1.743,4.477,4.477,0,0,1-1.071,1.421,5.07,5.07,0,0,1-1.588.956,5.506,5.506,0,0,1-1.946.35H11.8a5.619,5.619,0,0,1-1.96-.35,5.337,5.337,0,0,1-1.626-.956,4.737,4.737,0,0,1-1.127-1.421A4.165,4.165,0,0,1,6.628,22.3L6.176,10.563A4.064,4.064,0,0,1,6.505,8.79a4.339,4.339,0,0,1,1.03-1.451,4.888,4.888,0,0,1,1.574-.98A5.419,5.419,0,0,1,11.068,6Z" transform="translate(0 38.75)" fill="#1a2b51"/>
    </g>
  </g>
</svg>
