<svg id="Group_15477" data-name="Group 15477" xmlns="http://www.w3.org/2000/svg" width="175.383" height="52.549" viewBox="0 0 175.383 52.549">
  <defs>
    <style>
      .cls-1 {
        fill: #1d2a51;
      }
    </style>
  </defs>
  <path id="Path_11298" data-name="Path 11298" class="cls-1" d="M496.207,322.8h0a2.392,2.392,0,0,1,2.391,2.391V359.3a2.391,2.391,0,0,1-2.391,2.391h0a2.391,2.391,0,0,1-2.391-2.391V325.19A2.391,2.391,0,0,1,496.207,322.8Z" transform="translate(-371.273 -322.799)"/>
  <path id="Path_11299" data-name="Path 11299" class="cls-1" d="M518.532,348.625h0a2.391,2.391,0,0,1,2.391,2.391v24.017a2.391,2.391,0,0,1-2.391,2.391h0a2.391,2.391,0,0,1-2.391-2.391V351.016A2.391,2.391,0,0,1,518.532,348.625Z" transform="translate(-384.876 -338.535)"/>
  <path id="Path_11300" data-name="Path 11300" class="cls-1" d="M547.1,377.159c-5.127,0-9.093-2.137-10.83-5.48a2.368,2.368,0,0,1,2.107-3.454h.1a2.3,2.3,0,0,1,2.136,1.408c.843,2.056,3.106,3.479,6.436,3.479,3.783,0,5.886-1.892,5.886-4.257,0-6.411-17.027-2.68-17.027-13.4,0-4.414,4.152-8.041,10.563-8.041,5.029,0,8.711,2.136,10.187,5.812a2.364,2.364,0,0,1-2.207,3.227h0a2.364,2.364,0,0,1-2.213-1.542c-.771-2.066-2.811-3.45-5.924-3.45-3.521,0-5.623,1.682-5.623,3.994,0,6.832,16.712,3.1,16.921,13.4C557.612,373.586,553.461,377.159,547.1,377.159Z" transform="translate(-396.92 -337.798)"/>
  <path id="Path_11301" data-name="Path 11301" class="cls-1" d="M599.977,330.063h0a2.391,2.391,0,0,1,2.391,2.391v4.861h5.544a1.971,1.971,0,0,1,1.971,1.971h0a1.971,1.971,0,0,1-1.971,1.971h-5.544v16.975c0,2.838,1.052,3.836,3.994,3.836h1.5a2.023,2.023,0,0,1,2.023,2.023h0a2.023,2.023,0,0,1-2.023,2.023h-2.286c-5.1,0-7.988-2.1-7.988-7.883V332.454A2.391,2.391,0,0,1,599.977,330.063Z" transform="translate(-434.5 -327.225)"/>
  <path id="Path_11302" data-name="Path 11302" class="cls-1" d="M287.315,358.217a14.723,14.723,0,1,0-4.072,15.574v.927a2.416,2.416,0,0,0,2.416,2.416h0a2.416,2.416,0,0,0,2.416-2.416V362.88A14.515,14.515,0,0,0,287.315,358.217Zm-13.969,14.56a9.9,9.9,0,1,1,9.9-9.9A9.894,9.894,0,0,1,273.347,372.777Z" transform="translate(-227.966 -338.247)"/>
  <path id="Path_11303" data-name="Path 11303" class="cls-1" d="M365.937,361.056a12.837,12.837,0,0,1-4.781,10.013V361.056a8.119,8.119,0,1,0-16.239,0v10.013a12.9,12.9,0,1,1,21.019-10.013Z" transform="translate(-277.636 -338.247)"/>
  <path id="Path_11304" data-name="Path 11304" class="cls-1" d="M194.891,348.152a14.722,14.722,0,0,0-14.728,14.728v25.5a2.416,2.416,0,0,0,2.416,2.416h0a2.416,2.416,0,0,0,2.416-2.416V373.791a14.729,14.729,0,1,0,9.9-25.639Zm0,24.625a9.9,9.9,0,1,1,9.9-9.9A9.9,9.9,0,0,1,194.891,372.777Z" transform="translate(-180.163 -338.247)"/>
  <path id="Path_11305" data-name="Path 11305" class="cls-1" d="M441.753,362.878a15.161,15.161,0,0,0-.168-2.248,14.733,14.733,0,0,0-29.12,0,15.12,15.12,0,0,0-.168,2.248,15.305,15.305,0,0,0,.088,1.642,14.443,14.443,0,0,0,.993,3.89,14.725,14.725,0,0,0,24.9,3.968,2.417,2.417,0,0,0-1.855-3.968h0a2.378,2.378,0,0,0-1.824.836,9.892,9.892,0,0,1-15.777-.836,9.685,9.685,0,0,1-1.555-3.89H440.11a1.643,1.643,0,0,0,1.643-1.642Zm-24.361-2.248a9.891,9.891,0,0,1,19.268,0Z" transform="translate(-321.603 -338.245)"/>
  <path id="Path_11306" data-name="Path 11306" class="cls-1" d="M344.918,381.179v13.688a2.39,2.39,0,0,1-2.39,2.39h0a2.39,2.39,0,0,1-2.39-2.39V381.179Z" transform="translate(-277.636 -358.37)"/>
  <path id="Path_11307" data-name="Path 11307" class="cls-1" d="M398.717,381.179v13.688a2.39,2.39,0,0,1-2.39,2.39h0a2.39,2.39,0,0,1-2.39-2.39V381.179Z" transform="translate(-310.416 -358.37)"/>
</svg>
